{"success":true,"data":{"registros":[{"id":"cmmv9wmy3004q4dssbcj7vhq2","empresaId":"cmmv9wmiu00004dssyjn0bxk2","trabajadorId":"cmmv9wmjs00064dssqrdvhpb4","fecha":"2026-03-13T00:00:00.000Z","entrada":"2026-03-13T08:12:00.000Z","salida":"2026-03-13T18:04:00.000Z","horasOrdinarias":"8.800000000000001","horasExtra":"0.57","tipoDia":"LABORAL","observacion":null,"createdAt":"2026-03-17T23:58:32.236Z","trabajador":{"id":"cmmv9wmjs00064dssqrdvhpb4","nombre":"Pedro","apellidoPaterno":"Rojas","rut":"211234568"}},{"id":"cmmv9wmwi00464dss5f5uthrj","empresaId":"cmmv9wmiu00004dssyjn0bxk2","trabajadorId":"cmmv9wmji00044dssjty8rbpr","fecha":"2026-03-13T00:00:00.000Z","entrada":"2026-03-13T08:07:00.000Z","salida":"2026-03-13T17:08:00.000Z","horasOrdinarias":"8.52","horasExtra":"0","tipoDia":"LABORAL","observacion":null,"createdAt":"2026-03-17T23:58:32.178Z","trabajador":{"id":"cmmv9wmji00044dssjty8rbpr","nombre":"Ana","apellidoPaterno":"Martínez","rut":"201234567"}},{"id":"cmmv9wn2t006e4dss9yu50xrl","empresaId":"cmmv9wmiu00004dssyjn0bxk2","trabajadorId":"cmmv9wmka000c4dss9izv33ne","fecha":"2026-03-13T00:00:00.000Z","entrada":"2026-03-13T08:06:00.000Z","salida":"2026-03-13T17:26:00.000Z","horasOrdinarias":"8.800000000000001","horasExtra":"0.03","tipoDia":"LABORAL","observacion":null,"createdAt":"2026-03-17T23:58:32.406Z","trabajador":{"id":"cmmv9wmka000c4dss9izv33ne","nombre":"Francisca","apellidoPaterno":"Herrera","rut":"241234561"}},{"id":"cmmv9wn4b006y4dssobzf7rrf","empresaId":"cmmv9wmiu00004dssyjn0bxk2","trabajadorId":"cmmv9wmkg000e4dssreqzpoxg","fecha":"2026-03-13T00:00:00.000Z","entrada":"2026-03-13T08:14:00.000Z","salida":"2026-03-13T18:16:00.000Z","horasOrdinarias":"8.800000000000001","horasExtra":"0.73","tipoDia":"LABORAL","observacion":null,"createdAt":"2026-03-17T23:58:32.460Z","trabajador":{"id":"cmmv9wmkg000e4dssreqzpoxg","nombre":"Jorge","apellidoPaterno":"Espinoza","rut":"251234562"}},{"id":"cmmv9wmzq005a4dssew476zr1","empresaId":"cmmv9wmiu00004dssyjn0bxk2","trabajadorId":"cmmv9wmjz00084dssjcz93bc1","fecha":"2026-03-13T00:00:00.000Z","entrada":"2026-03-13T08:12:00.000Z","salida":"2026-03-13T18:07:00.000Z","horasOrdinarias":"8.800000000000001","horasExtra":"0.62","tipoDia":"LABORAL","observacion":null,"createdAt":"2026-03-17T23:58:32.294Z","trabajador":{"id":"cmmv9wmjz00084dssjcz93bc1","nombre":"Claudia","apellidoPaterno":"Torres","rut":"221234569"}},{"id":"cmmv9wn5s007i4dssarmw3fz5","empresaId":"cmmv9wmiu00004dssyjn0bxk2","trabajadorId":"cmmv9wmkl000g4dssu3faxebr","fecha":"2026-03-13T00:00:00.000Z","entrada":"2026-03-13T08:02:00.000Z","salida":"2026-03-13T17:01:00.000Z","horasOrdinarias":"4.5","horasExtra":"3.98","tipoDia":"LABORAL","observacion":null,"createdAt":"2026-03-17T23:58:32.512Z","trabajador":{"id":"cmmv9wmkl000g4dssu3faxebr","nombre":"Valentina","apellidoPaterno":"Morales","rut":"261234563"}},{"id":"cmmv9wn1b005u4dssnl1x3xei","empresaId":"cmmv9wmiu00004dssyjn0bxk2","trabajadorId":"cmmv9wmk4000a4dsscd231kex","fecha":"2026-03-13T00:00:00.000Z","entrada":"2026-03-13T08:13:00.000Z","salida":"2026-03-13T17:26:00.000Z","horasOrdinarias":"8.720000000000001","horasExtra":"0","tipoDia":"LABORAL","observacion":null,"createdAt":"2026-03-17T23:58:32.351Z","trabajador":{"id":"cmmv9wmk4000a4dsscd231kex","nombre":"Miguel","apellidoPaterno":"Sánchez","rut":"231234560"}},{"id":"cmmv9wn7d00824dssssrmlmsf","empresaId":"cmmv9wmiu00004dssyjn0bxk2","trabajadorId":"cmmv9wmkr000i4dsswytsf6mw","fecha":"2026-03-13T00:00:00.000Z","entrada":"2026-03-13T08:08:00.000Z","salida":"2026-03-13T18:08:00.000Z","horasOrdinarias":"8.800000000000001","horasExtra":"0.7","tipoDia":"LABORAL","observacion":null,"createdAt":"2026-03-17T23:58:32.569Z","trabajador":{"id":"cmmv9wmkr000i4dsswytsf6mw","nombre":"Ricardo","apellidoPaterno":"Guzmán","rut":"271234564"}},{"id":"cmmv9wn46006w4dssnlqybr1n","empresaId":"cmmv9wmiu00004dssyjn0bxk2","trabajadorId":"cmmv9wmkg000e4dssreqzpoxg","fecha":"2026-03-12T00:00:00.000Z","entrada":"2026-03-12T08:03:00.000Z","salida":"2026-03-12T18:08:00.000Z","horasOrdinarias":"8.800000000000001","horasExtra":"0.78","tipoDia":"LABORAL","observacion":null,"createdAt":"2026-03-17T23:58:32.454Z","trabajador":{"id":"cmmv9wmkg000e4dssreqzpoxg","nombre":"Jorge","apellidoPaterno":"Espinoza","rut":"251234562"}},{"id":"cmmv9wmzk00584dssw6nz4rjt","empresaId":"cmmv9wmiu00004dssyjn0bxk2","trabajadorId":"cmmv9wmjz00084dssjcz93bc1","fecha":"2026-03-12T00:00:00.000Z","entrada":"2026-03-12T08:01:00.000Z","salida":"2026-03-12T18:07:00.000Z","horasOrdinarias":"8.800000000000001","horasExtra":"0.8","tipoDia":"LABORAL","observacion":null,"createdAt":"2026-03-17T23:58:32.288Z","trabajador":{"id":"cmmv9wmjz00084dssjcz93bc1","nombre":"Claudia","apellidoPaterno":"Torres","rut":"221234569"}},{"id":"cmmv9wn5n007g4dssfjszvxm1","empresaId":"cmmv9wmiu00004dssyjn0bxk2","trabajadorId":"cmmv9wmkl000g4dssu3faxebr","fecha":"2026-03-12T00:00:00.000Z","entrada":"2026-03-12T08:08:00.000Z","salida":"2026-03-12T17:18:00.000Z","horasOrdinarias":"4.5","horasExtra":"4.17","tipoDia":"LABORAL","observacion":null,"createdAt":"2026-03-17T23:58:32.508Z","trabajador":{"id":"cmmv9wmkl000g4dssu3faxebr","nombre":"Valentina","apellidoPaterno":"Morales","rut":"261234563"}},{"id":"cmmv9wn7800804dss4wcpd128","empresaId":"cmmv9wmiu00004dssyjn0bxk2","trabajadorId":"cmmv9wmkr000i4dsswytsf6mw","fecha":"2026-03-12T00:00:00.000Z","entrada":"2026-03-12T08:17:00.000Z","salida":"2026-03-12T18:24:00.000Z","horasOrdinarias":"8.800000000000001","horasExtra":"0.82","tipoDia":"LABORAL","observacion":null,"createdAt":"2026-03-17T23:58:32.564Z","trabajador":{"id":"cmmv9wmkr000i4dsswytsf6mw","nombre":"Ricardo","apellidoPaterno":"Guzmán","rut":"271234564"}},{"id":"cmmv9wmwa00444dssd7iay23t","empresaId":"cmmv9wmiu00004dssyjn0bxk2","trabajadorId":"cmmv9wmji00044dssjty8rbpr","fecha":"2026-03-12T00:00:00.000Z","entrada":"2026-03-12T08:19:00.000Z","salida":"2026-03-12T18:18:00.000Z","horasOrdinarias":"8.800000000000001","horasExtra":"0.68","tipoDia":"LABORAL","observacion":null,"createdAt":"2026-03-17T23:58:32.170Z","trabajador":{"id":"cmmv9wmji00044dssjty8rbpr","nombre":"Ana","apellidoPaterno":"Martínez","rut":"201234567"}},{"id":"cmmv9wn2p006c4dssyk5aecim","empresaId":"cmmv9wmiu00004dssyjn0bxk2","trabajadorId":"cmmv9wmka000c4dss9izv33ne","fecha":"2026-03-12T00:00:00.000Z","entrada":"2026-03-12T08:18:00.000Z","salida":"2026-03-12T17:09:00.000Z","horasOrdinarias":"8.35","horasExtra":"0","tipoDia":"LABORAL","observacion":null,"createdAt":"2026-03-17T23:58:32.401Z","trabajador":{"id":"cmmv9wmka000c4dss9izv33ne","nombre":"Francisca","apellidoPaterno":"Herrera","rut":"241234561"}},{"id":"cmmv9wmxx004o4dss78rqvbnb","empresaId":"cmmv9wmiu00004dssyjn0bxk2","trabajadorId":"cmmv9wmjs00064dssqrdvhpb4","fecha":"2026-03-12T00:00:00.000Z","entrada":"2026-03-12T08:08:00.000Z","salida":"2026-03-12T18:12:00.000Z","horasOrdinarias":"8.800000000000001","horasExtra":"0.77","tipoDia":"LABORAL","observacion":null,"createdAt":"2026-03-17T23:58:32.230Z","trabajador":{"id":"cmmv9wmjs00064dssqrdvhpb4","nombre":"Pedro","apellidoPaterno":"Rojas","rut":"211234568"}},{"id":"cmmv9wn16005s4dssfuw9dbgq","empresaId":"cmmv9wmiu00004dssyjn0bxk2","trabajadorId":"cmmv9wmk4000a4dsscd231kex","fecha":"2026-03-12T00:00:00.000Z","entrada":"2026-03-12T08:04:00.000Z","salida":"2026-03-12T17:01:00.000Z","horasOrdinarias":"8.449999999999999","horasExtra":"0","tipoDia":"LABORAL","observacion":null,"createdAt":"2026-03-17T23:58:32.346Z","trabajador":{"id":"cmmv9wmk4000a4dsscd231kex","nombre":"Miguel","apellidoPaterno":"Sánchez","rut":"231234560"}},{"id":"cmmv9wn72007y4dss8obz28h3","empresaId":"cmmv9wmiu00004dssyjn0bxk2","trabajadorId":"cmmv9wmkr000i4dsswytsf6mw","fecha":"2026-03-11T00:00:00.000Z","entrada":"2026-03-11T08:14:00.000Z","salida":"2026-03-11T17:22:00.000Z","horasOrdinarias":"8.630000000000001","horasExtra":"0","tipoDia":"LABORAL","observacion":null,"createdAt":"2026-03-17T23:58:32.558Z","trabajador":{"id":"cmmv9wmkr000i4dsswytsf6mw","nombre":"Ricardo","apellidoPaterno":"Guzmán","rut":"271234564"}},{"id":"cmmv9wmxs004m4dss4xreegbf","empresaId":"cmmv9wmiu00004dssyjn0bxk2","trabajadorId":"cmmv9wmjs00064dssqrdvhpb4","fecha":"2026-03-11T00:00:00.000Z","entrada":"2026-03-11T08:03:00.000Z","salida":"2026-03-11T17:25:00.000Z","horasOrdinarias":"8.800000000000001","horasExtra":"0.07000000000000001","tipoDia":"LABORAL","observacion":null,"createdAt":"2026-03-17T23:58:32.224Z","trabajador":{"id":"cmmv9wmjs00064dssqrdvhpb4","nombre":"Pedro","apellidoPaterno":"Rojas","rut":"211234568"}},{"id":"cmmv9wn11005q4dssqky33p2p","empresaId":"cmmv9wmiu00004dssyjn0bxk2","trabajadorId":"cmmv9wmk4000a4dsscd231kex","fecha":"2026-03-11T00:00:00.000Z","entrada":"2026-03-11T08:12:00.000Z","salida":"2026-03-11T18:15:00.000Z","horasOrdinarias":"8.800000000000001","horasExtra":"0.75","tipoDia":"LABORAL","observacion":null,"createdAt":"2026-03-17T23:58:32.341Z","trabajador":{"id":"cmmv9wmk4000a4dsscd231kex","nombre":"Miguel","apellidoPaterno":"Sánchez","rut":"231234560"}},{"id":"cmmv9wmw400424dsswmyxsp0i","empresaId":"cmmv9wmiu00004dssyjn0bxk2","trabajadorId":"cmmv9wmji00044dssjty8rbpr","fecha":"2026-03-11T00:00:00.000Z","entrada":"2026-03-11T08:12:00.000Z","salida":"2026-03-11T17:22:00.000Z","horasOrdinarias":"8.67","horasExtra":"0","tipoDia":"LABORAL","observacion":null,"createdAt":"2026-03-17T23:58:32.164Z","trabajador":{"id":"cmmv9wmji00044dssjty8rbpr","nombre":"Ana","apellidoPaterno":"Martínez","rut":"201234567"}},{"id":"cmmv9wn2j006a4dsss2d35s0h","empresaId":"cmmv9wmiu00004dssyjn0bxk2","trabajadorId":"cmmv9wmka000c4dss9izv33ne","fecha":"2026-03-11T00:00:00.000Z","entrada":"2026-03-11T08:16:00.000Z","salida":"2026-03-11T18:29:00.000Z","horasOrdinarias":"8.800000000000001","horasExtra":"0.92","tipoDia":"LABORAL","observacion":null,"createdAt":"2026-03-17T23:58:32.396Z","trabajador":{"id":"cmmv9wmka000c4dss9izv33ne","nombre":"Francisca","apellidoPaterno":"Herrera","rut":"241234561"}},{"id":"cmmv9wn41006u4dss7jg2rfex","empresaId":"cmmv9wmiu00004dssyjn0bxk2","trabajadorId":"cmmv9wmkg000e4dssreqzpoxg","fecha":"2026-03-11T00:00:00.000Z","entrada":"2026-03-11T08:11:00.000Z","salida":"2026-03-11T18:19:00.000Z","horasOrdinarias":"8.800000000000001","horasExtra":"0.83","tipoDia":"LABORAL","observacion":null,"createdAt":"2026-03-17T23:58:32.449Z","trabajador":{"id":"cmmv9wmkg000e4dssreqzpoxg","nombre":"Jorge","apellidoPaterno":"Espinoza","rut":"251234562"}},{"id":"cmmv9wn5i007e4dssak2m6w6z","empresaId":"cmmv9wmiu00004dssyjn0bxk2","trabajadorId":"cmmv9wmkl000g4dssu3faxebr","fecha":"2026-03-11T00:00:00.000Z","entrada":"2026-03-11T08:07:00.000Z","salida":"2026-03-11T18:14:00.000Z","horasOrdinarias":"4.5","horasExtra":"5.12","tipoDia":"LABORAL","observacion":null,"createdAt":"2026-03-17T23:58:32.502Z","trabajador":{"id":"cmmv9wmkl000g4dssu3faxebr","nombre":"Valentina","apellidoPaterno":"Morales","rut":"261234563"}},{"id":"cmmv9wmze00564dsswevbqcgd","empresaId":"cmmv9wmiu00004dssyjn0bxk2","trabajadorId":"cmmv9wmjz00084dssjcz93bc1","fecha":"2026-03-11T00:00:00.000Z","entrada":"2026-03-11T08:09:00.000Z","salida":"2026-03-11T18:17:00.000Z","horasOrdinarias":"8.800000000000001","horasExtra":"0.83","tipoDia":"LABORAL","observacion":null,"createdAt":"2026-03-17T23:58:32.283Z","trabajador":{"id":"cmmv9wmjz00084dssjcz93bc1","nombre":"Claudia","apellidoPaterno":"Torres","rut":"221234569"}},{"id":"cmmv9wn0v005o4dssf55pkl2z","empresaId":"cmmv9wmiu00004dssyjn0bxk2","trabajadorId":"cmmv9wmk4000a4dsscd231kex","fecha":"2026-03-10T00:00:00.000Z","entrada":"2026-03-10T08:13:00.000Z","salida":"2026-03-10T18:05:00.000Z","horasOrdinarias":"8.800000000000001","horasExtra":"0.57","tipoDia":"LABORAL","observacion":null,"createdAt":"2026-03-17T23:58:32.335Z","trabajador":{"id":"cmmv9wmk4000a4dsscd231kex","nombre":"Miguel","apellidoPaterno":"Sánchez","rut":"231234560"}},{"id":"cmmv9wn6w007w4dssxu0xh5t9","empresaId":"cmmv9wmiu00004dssyjn0bxk2","trabajadorId":"cmmv9wmkr000i4dsswytsf6mw","fecha":"2026-03-10T00:00:00.000Z","entrada":"2026-03-10T08:07:00.000Z","salida":"2026-03-10T18:15:00.000Z","horasOrdinarias":"8.800000000000001","horasExtra":"0.83","tipoDia":"LABORAL","observacion":null,"createdAt":"2026-03-17T23:58:32.552Z","trabajador":{"id":"cmmv9wmkr000i4dsswytsf6mw","nombre":"Ricardo","apellidoPaterno":"Guzmán","rut":"271234564"}},{"id":"cmmv9wmxm004k4dsspwkjgta1","empresaId":"cmmv9wmiu00004dssyjn0bxk2","trabajadorId":"cmmv9wmjs00064dssqrdvhpb4","fecha":"2026-03-10T00:00:00.000Z","entrada":"2026-03-10T08:17:00.000Z","salida":"2026-03-10T18:10:00.000Z","horasOrdinarias":"8.800000000000001","horasExtra":"0.58","tipoDia":"LABORAL","observacion":null,"createdAt":"2026-03-17T23:58:32.218Z","trabajador":{"id":"cmmv9wmjs00064dssqrdvhpb4","nombre":"Pedro","apellidoPaterno":"Rojas","rut":"211234568"}},{"id":"cmmv9wmz800544dsswyxg8mxb","empresaId":"cmmv9wmiu00004dssyjn0bxk2","trabajadorId":"cmmv9wmjz00084dssjcz93bc1","fecha":"2026-03-10T00:00:00.000Z","entrada":"2026-03-10T08:06:00.000Z","salida":"2026-03-10T17:27:00.000Z","horasOrdinarias":"8.800000000000001","horasExtra":"0.05","tipoDia":"LABORAL","observacion":null,"createdAt":"2026-03-17T23:58:32.277Z","trabajador":{"id":"cmmv9wmjz00084dssjcz93bc1","nombre":"Claudia","apellidoPaterno":"Torres","rut":"221234569"}},{"id":"cmmv9wn2d00684dssznks8dxr","empresaId":"cmmv9wmiu00004dssyjn0bxk2","trabajadorId":"cmmv9wmka000c4dss9izv33ne","fecha":"2026-03-10T00:00:00.000Z","entrada":"2026-03-10T08:16:00.000Z","salida":"2026-03-10T17:28:00.000Z","horasOrdinarias":"8.699999999999999","horasExtra":"0","tipoDia":"LABORAL","observacion":null,"createdAt":"2026-03-17T23:58:32.389Z","trabajador":{"id":"cmmv9wmka000c4dss9izv33ne","nombre":"Francisca","apellidoPaterno":"Herrera","rut":"241234561"}},{"id":"cmmv9wn3v006s4dss35s5yh67","empresaId":"cmmv9wmiu00004dssyjn0bxk2","trabajadorId":"cmmv9wmkg000e4dssreqzpoxg","fecha":"2026-03-10T00:00:00.000Z","entrada":"2026-03-10T08:04:00.000Z","salida":"2026-03-10T17:12:00.000Z","horasOrdinarias":"8.630000000000001","horasExtra":"0","tipoDia":"LABORAL","observacion":null,"createdAt":"2026-03-17T23:58:32.444Z","trabajador":{"id":"cmmv9wmkg000e4dssreqzpoxg","nombre":"Jorge","apellidoPaterno":"Espinoza","rut":"251234562"}},{"id":"cmmv9wmvy00404dsscj1brl5u","empresaId":"cmmv9wmiu00004dssyjn0bxk2","trabajadorId":"cmmv9wmji00044dssjty8rbpr","fecha":"2026-03-10T00:00:00.000Z","entrada":"2026-03-10T08:07:00.000Z","salida":"2026-03-10T17:29:00.000Z","horasOrdinarias":"8.800000000000001","horasExtra":"0.07000000000000001","tipoDia":"LABORAL","observacion":null,"createdAt":"2026-03-17T23:58:32.159Z","trabajador":{"id":"cmmv9wmji00044dssjty8rbpr","nombre":"Ana","apellidoPaterno":"Martínez","rut":"201234567"}},{"id":"cmmv9wn5d007c4dssylyis8ly","empresaId":"cmmv9wmiu00004dssyjn0bxk2","trabajadorId":"cmmv9wmkl000g4dssu3faxebr","fecha":"2026-03-10T00:00:00.000Z","entrada":"2026-03-10T08:09:00.000Z","salida":"2026-03-10T18:26:00.000Z","horasOrdinarias":"4.5","horasExtra":"5.28","tipoDia":"LABORAL","observacion":null,"createdAt":"2026-03-17T23:58:32.497Z","trabajador":{"id":"cmmv9wmkl000g4dssu3faxebr","nombre":"Valentina","apellidoPaterno":"Morales","rut":"261234563"}},{"id":"cmmv9wn58007a4dssy6t60tp1","empresaId":"cmmv9wmiu00004dssyjn0bxk2","trabajadorId":"cmmv9wmkl000g4dssu3faxebr","fecha":"2026-03-09T00:00:00.000Z","entrada":"2026-03-09T08:01:00.000Z","salida":"2026-03-09T18:29:00.000Z","horasOrdinarias":"4.5","horasExtra":"5.47","tipoDia":"LABORAL","observacion":null,"createdAt":"2026-03-17T23:58:32.492Z","trabajador":{"id":"cmmv9wmkl000g4dssu3faxebr","nombre":"Valentina","apellidoPaterno":"Morales","rut":"261234563"}},{"id":"cmmv9wmz300524dss9d0sfw64","empresaId":"cmmv9wmiu00004dssyjn0bxk2","trabajadorId":"cmmv9wmjz00084dssjcz93bc1","fecha":"2026-03-09T00:00:00.000Z","entrada":"2026-03-09T08:17:00.000Z","salida":"2026-03-09T17:04:00.000Z","horasOrdinarias":"8.279999999999999","horasExtra":"0","tipoDia":"LABORAL","observacion":null,"createdAt":"2026-03-17T23:58:32.271Z","trabajador":{"id":"cmmv9wmjz00084dssjcz93bc1","nombre":"Claudia","apellidoPaterno":"Torres","rut":"221234569"}},{"id":"cmmv9wn0q005m4dssfxr5vwmu","empresaId":"cmmv9wmiu00004dssyjn0bxk2","trabajadorId":"cmmv9wmk4000a4dsscd231kex","fecha":"2026-03-09T00:00:00.000Z","entrada":"2026-03-09T08:13:00.000Z","salida":"2026-03-09T18:13:00.000Z","horasOrdinarias":"8.800000000000001","horasExtra":"0.7","tipoDia":"LABORAL","observacion":null,"createdAt":"2026-03-17T23:58:32.330Z","trabajador":{"id":"cmmv9wmk4000a4dsscd231kex","nombre":"Miguel","apellidoPaterno":"Sánchez","rut":"231234560"}},{"id":"cmmv9wn6q007u4dssax354wef","empresaId":"cmmv9wmiu00004dssyjn0bxk2","trabajadorId":"cmmv9wmkr000i4dsswytsf6mw","fecha":"2026-03-09T00:00:00.000Z","entrada":"2026-03-09T08:14:00.000Z","salida":"2026-03-09T17:20:00.000Z","horasOrdinarias":"8.6","horasExtra":"0","tipoDia":"LABORAL","observacion":null,"createdAt":"2026-03-17T23:58:32.546Z","trabajador":{"id":"cmmv9wmkr000i4dsswytsf6mw","nombre":"Ricardo","apellidoPaterno":"Guzmán","rut":"271234564"}},{"id":"cmmv9wn3q006q4dsscpr6eb39","empresaId":"cmmv9wmiu00004dssyjn0bxk2","trabajadorId":"cmmv9wmkg000e4dssreqzpoxg","fecha":"2026-03-09T00:00:00.000Z","entrada":"2026-03-09T08:11:00.000Z","salida":"2026-03-09T17:03:00.000Z","horasOrdinarias":"8.369999999999999","horasExtra":"0","tipoDia":"LABORAL","observacion":null,"createdAt":"2026-03-17T23:58:32.438Z","trabajador":{"id":"cmmv9wmkg000e4dssreqzpoxg","nombre":"Jorge","apellidoPaterno":"Espinoza","rut":"251234562"}},{"id":"cmmv9wn2700664dssg4klxjet","empresaId":"cmmv9wmiu00004dssyjn0bxk2","trabajadorId":"cmmv9wmka000c4dss9izv33ne","fecha":"2026-03-09T00:00:00.000Z","entrada":"2026-03-09T08:03:00.000Z","salida":"2026-03-09T17:27:00.000Z","horasOrdinarias":"8.800000000000001","horasExtra":"0.1","tipoDia":"LABORAL","observacion":null,"createdAt":"2026-03-17T23:58:32.384Z","trabajador":{"id":"cmmv9wmka000c4dss9izv33ne","nombre":"Francisca","apellidoPaterno":"Herrera","rut":"241234561"}},{"id":"cmmv9wmvt003y4dss4550p09v","empresaId":"cmmv9wmiu00004dssyjn0bxk2","trabajadorId":"cmmv9wmji00044dssjty8rbpr","fecha":"2026-03-09T00:00:00.000Z","entrada":"2026-03-09T08:03:00.000Z","salida":"2026-03-09T17:13:00.000Z","horasOrdinarias":"8.67","horasExtra":"0","tipoDia":"LABORAL","observacion":null,"createdAt":"2026-03-17T23:58:32.154Z","trabajador":{"id":"cmmv9wmji00044dssjty8rbpr","nombre":"Ana","apellidoPaterno":"Martínez","rut":"201234567"}},{"id":"cmmv9wmxg004i4dssjv7dsh4g","empresaId":"cmmv9wmiu00004dssyjn0bxk2","trabajadorId":"cmmv9wmjs00064dssqrdvhpb4","fecha":"2026-03-09T00:00:00.000Z","entrada":"2026-03-09T08:10:00.000Z","salida":"2026-03-09T18:12:00.000Z","horasOrdinarias":"8.800000000000001","horasExtra":"0.73","tipoDia":"LABORAL","observacion":null,"createdAt":"2026-03-17T23:58:32.213Z","trabajador":{"id":"cmmv9wmjs00064dssqrdvhpb4","nombre":"Pedro","apellidoPaterno":"Rojas","rut":"211234568"}},{"id":"cmmv9wn2200644dss786hu5tu","empresaId":"cmmv9wmiu00004dssyjn0bxk2","trabajadorId":"cmmv9wmka000c4dss9izv33ne","fecha":"2026-03-06T00:00:00.000Z","entrada":"2026-03-06T08:01:00.000Z","salida":"2026-03-06T17:22:00.000Z","horasOrdinarias":"8.800000000000001","horasExtra":"0.05","tipoDia":"LABORAL","observacion":null,"createdAt":"2026-03-17T23:58:32.379Z","trabajador":{"id":"cmmv9wmka000c4dss9izv33ne","nombre":"Francisca","apellidoPaterno":"Herrera","rut":"241234561"}},{"id":"cmmv9wn0l005k4dssaalawdmg","empresaId":"cmmv9wmiu00004dssyjn0bxk2","trabajadorId":"cmmv9wmk4000a4dsscd231kex","fecha":"2026-03-06T00:00:00.000Z","entrada":"2026-03-06T08:05:00.000Z","salida":"2026-03-06T17:12:00.000Z","horasOrdinarias":"8.619999999999999","horasExtra":"0","tipoDia":"LABORAL","observacion":null,"createdAt":"2026-03-17T23:58:32.325Z","trabajador":{"id":"cmmv9wmk4000a4dsscd231kex","nombre":"Miguel","apellidoPaterno":"Sánchez","rut":"231234560"}},{"id":"cmmv9wn5300784dsspmc1je1i","empresaId":"cmmv9wmiu00004dssyjn0bxk2","trabajadorId":"cmmv9wmkl000g4dssu3faxebr","fecha":"2026-03-06T00:00:00.000Z","entrada":"2026-03-06T08:12:00.000Z","salida":"2026-03-06T18:13:00.000Z","horasOrdinarias":"4.5","horasExtra":"5.02","tipoDia":"LABORAL","observacion":null,"createdAt":"2026-03-17T23:58:32.487Z","trabajador":{"id":"cmmv9wmkl000g4dssu3faxebr","nombre":"Valentina","apellidoPaterno":"Morales","rut":"261234563"}},{"id":"cmmv9wmvn003w4dss8g73pbb3","empresaId":"cmmv9wmiu00004dssyjn0bxk2","trabajadorId":"cmmv9wmji00044dssjty8rbpr","fecha":"2026-03-06T00:00:00.000Z","entrada":"2026-03-06T08:07:00.000Z","salida":"2026-03-06T17:20:00.000Z","horasOrdinarias":"8.720000000000001","horasExtra":"0","tipoDia":"LABORAL","observacion":null,"createdAt":"2026-03-17T23:58:32.148Z","trabajador":{"id":"cmmv9wmji00044dssjty8rbpr","nombre":"Ana","apellidoPaterno":"Martínez","rut":"201234567"}},{"id":"cmmv9wmyw00504dssk5b2n1q6","empresaId":"cmmv9wmiu00004dssyjn0bxk2","trabajadorId":"cmmv9wmjz00084dssjcz93bc1","fecha":"2026-03-06T00:00:00.000Z","entrada":"2026-03-06T08:16:00.000Z","salida":"2026-03-06T17:00:00.000Z","horasOrdinarias":"8.23","horasExtra":"0","tipoDia":"LABORAL","observacion":null,"createdAt":"2026-03-17T23:58:32.264Z","trabajador":{"id":"cmmv9wmjz00084dssjcz93bc1","nombre":"Claudia","apellidoPaterno":"Torres","rut":"221234569"}},{"id":"cmmv9wn6k007s4dssnr83e89c","empresaId":"cmmv9wmiu00004dssyjn0bxk2","trabajadorId":"cmmv9wmkr000i4dsswytsf6mw","fecha":"2026-03-06T00:00:00.000Z","entrada":"2026-03-06T08:03:00.000Z","salida":"2026-03-06T18:29:00.000Z","horasOrdinarias":"8.800000000000001","horasExtra":"1.13","tipoDia":"LABORAL","observacion":null,"createdAt":"2026-03-17T23:58:32.540Z","trabajador":{"id":"cmmv9wmkr000i4dsswytsf6mw","nombre":"Ricardo","apellidoPaterno":"Guzmán","rut":"271234564"}},{"id":"cmmv9wmxb004g4dssudju90fh","empresaId":"cmmv9wmiu00004dssyjn0bxk2","trabajadorId":"cmmv9wmjs00064dssqrdvhpb4","fecha":"2026-03-06T00:00:00.000Z","entrada":"2026-03-06T08:12:00.000Z","salida":"2026-03-06T17:09:00.000Z","horasOrdinarias":"8.449999999999999","horasExtra":"0","tipoDia":"LABORAL","observacion":null,"createdAt":"2026-03-17T23:58:32.207Z","trabajador":{"id":"cmmv9wmjs00064dssqrdvhpb4","nombre":"Pedro","apellidoPaterno":"Rojas","rut":"211234568"}},{"id":"cmmv9wn3l006o4dssbft3gv70","empresaId":"cmmv9wmiu00004dssyjn0bxk2","trabajadorId":"cmmv9wmkg000e4dssreqzpoxg","fecha":"2026-03-06T00:00:00.000Z","entrada":"2026-03-06T08:08:00.000Z","salida":"2026-03-06T18:28:00.000Z","horasOrdinarias":"8.800000000000001","horasExtra":"1.03","tipoDia":"LABORAL","observacion":null,"createdAt":"2026-03-17T23:58:32.433Z","trabajador":{"id":"cmmv9wmkg000e4dssreqzpoxg","nombre":"Jorge","apellidoPaterno":"Espinoza","rut":"251234562"}},{"id":"cmmv9wn4x00764dsso5kgrefc","empresaId":"cmmv9wmiu00004dssyjn0bxk2","trabajadorId":"cmmv9wmkl000g4dssu3faxebr","fecha":"2026-03-05T00:00:00.000Z","entrada":"2026-03-05T08:07:00.000Z","salida":"2026-03-05T18:26:00.000Z","horasOrdinarias":"4.5","horasExtra":"5.32","tipoDia":"LABORAL","observacion":null,"createdAt":"2026-03-17T23:58:32.482Z","trabajador":{"id":"cmmv9wmkl000g4dssu3faxebr","nombre":"Valentina","apellidoPaterno":"Morales","rut":"261234563"}},{"id":"cmmv9wmx6004e4dsssg0aaqje","empresaId":"cmmv9wmiu00004dssyjn0bxk2","trabajadorId":"cmmv9wmjs00064dssqrdvhpb4","fecha":"2026-03-05T00:00:00.000Z","entrada":"2026-03-05T08:04:00.000Z","salida":"2026-03-05T18:03:00.000Z","horasOrdinarias":"8.800000000000001","horasExtra":"0.68","tipoDia":"LABORAL","observacion":null,"createdAt":"2026-03-17T23:58:32.202Z","trabajador":{"id":"cmmv9wmjs00064dssqrdvhpb4","nombre":"Pedro","apellidoPaterno":"Rojas","rut":"211234568"}}],"pagination":{"total":80,"page":1,"limit":50,"pages":2}}}