{"success":true,"data":{"liquidaciones":[{"id":"cmmv9wmuj003k4dsseqqj3yb5","empresaId":"cmmv9wmiu00004dssyjn0bxk2","trabajadorId":"cmmv9wmkr000i4dsswytsf6mw","periodo":"2026-02","sueldoBase":"550000","gratificacion":"137500","horasExtra":"8661","bonos":"0","otrosHaberes":"0","totalHaberes":"696161","afp":"69616","comisionAfp":"3202","salud":"48731","cesantiaTrab":"4177","impuestoRenta":"0","otrosDescuentos":"0","totalDescuentos":"125726","liquido":"570435","sis":"10721","cesantiaEmp":"16708","mutual":"6614","aporteReforma":"6962","totalCostoEmp":"41005","verificado":true,"aprobadoPor":null,"estado":"APROBADA","detalleCalculo":{"tasaAfp":0.1,"tasaSis":0.0154,"topeAfp":3483000,"tasaSalud":0.07,"tasaMutual":0.0095,"tasaReforma":0.01,"tasaComision":0.0046,"topeCesantia":5232240,"baseImponible":696161,"rentaImponible":696161,"tasaCesantiaEmp":0.024,"tasaCesantiaTrab":0.006,"rentaImponibleAfp":696161,"rentaImponibleCesantia":696161},"createdAt":"2026-03-17T23:58:32.107Z","updatedAt":"2026-03-17T23:58:32.107Z","trabajador":{"id":"cmmv9wmkr000i4dsswytsf6mw","nombre":"Ricardo","apellidoPaterno":"Guzmán","apellidoMaterno":"Vega","rut":"271234564"}},{"id":"cmmv9wmu6003g4dss4htbcvpu","empresaId":"cmmv9wmiu00004dssyjn0bxk2","trabajadorId":"cmmv9wmkl000g4dssu3faxebr","periodo":"2026-02","sueldoBase":"350000","gratificacion":"87500","horasExtra":"16166","bonos":"0","otrosHaberes":"0","totalHaberes":"453666","afp":"45367","comisionAfp":"5263","salud":"31757","cesantiaTrab":"2722","impuestoRenta":"0","otrosDescuentos":"0","totalDescuentos":"85109","liquido":"368557","sis":"6986","cesantiaEmp":"10888","mutual":"4310","aporteReforma":"4537","totalCostoEmp":"26721","verificado":true,"aprobadoPor":null,"estado":"APROBADA","detalleCalculo":{"tasaAfp":0.1,"tasaSis":0.0154,"topeAfp":3483000,"tasaSalud":0.07,"tasaMutual":0.0095,"tasaReforma":0.01,"tasaComision":0.0116,"topeCesantia":5232240,"baseImponible":453666,"rentaImponible":453666,"tasaCesantiaEmp":0.024,"tasaCesantiaTrab":0.006,"rentaImponibleAfp":453666,"rentaImponibleCesantia":453666},"createdAt":"2026-03-17T23:58:32.095Z","updatedAt":"2026-03-17T23:58:32.095Z","trabajador":{"id":"cmmv9wmkl000g4dssu3faxebr","nombre":"Valentina","apellidoPaterno":"Morales","apellidoMaterno":"Parra","rut":"261234563"}},{"id":"cmmv9wmtt003c4dsss8caytv8","empresaId":"cmmv9wmiu00004dssyjn0bxk2","trabajadorId":"cmmv9wmkg000e4dssreqzpoxg","periodo":"2026-02","sueldoBase":"900000","gratificacion":"213354","horasExtra":"7086","bonos":"0","otrosHaberes":"0","totalHaberes":"1120440","afp":"112044","comisionAfp":"7731","salud":"78431","cesantiaTrab":"6723","impuestoRenta":"0","otrosDescuentos":"0","totalDescuentos":"204929","liquido":"915511","sis":"17255","cesantiaEmp":"26891","mutual":"10644","aporteReforma":"11204","totalCostoEmp":"65994","verificado":true,"aprobadoPor":null,"estado":"APROBADA","detalleCalculo":{"tasaAfp":0.1,"tasaSis":0.0154,"topeAfp":3483000,"tasaSalud":0.07,"tasaMutual":0.0095,"tasaReforma":0.01,"tasaComision":0.0069,"topeCesantia":5232240,"baseImponible":1120440.166666667,"rentaImponible":1120440.166666667,"tasaCesantiaEmp":0.024,"tasaCesantiaTrab":0.006,"rentaImponibleAfp":1120440.166666667,"rentaImponibleCesantia":1120440.166666667},"createdAt":"2026-03-17T23:58:32.081Z","updatedAt":"2026-03-17T23:58:32.081Z","trabajador":{"id":"cmmv9wmkg000e4dssreqzpoxg","nombre":"Jorge","apellidoPaterno":"Espinoza","apellidoMaterno":"Castillo","rut":"251234562"}},{"id":"cmmv9wmth00384dsscb88qolh","empresaId":"cmmv9wmiu00004dssyjn0bxk2","trabajadorId":"cmmv9wmka000c4dss9izv33ne","periodo":"2026-02","sueldoBase":"580000","gratificacion":"145000","horasExtra":"0","bonos":"0","otrosHaberes":"0","totalHaberes":"725000","afp":"72500","comisionAfp":"9208","salud":"50750","cesantiaTrab":"4350","impuestoRenta":"0","otrosDescuentos":"0","totalDescuentos":"136808","liquido":"588192","sis":"11165","cesantiaEmp":"17400","mutual":"6888","aporteReforma":"7250","totalCostoEmp":"42703","verificado":true,"aprobadoPor":null,"estado":"APROBADA","detalleCalculo":{"tasaAfp":0.1,"tasaSis":0.0154,"topeAfp":3483000,"tasaSalud":0.07,"tasaMutual":0.0095,"tasaReforma":0.01,"tasaComision":0.0127,"topeCesantia":5232240,"baseImponible":725000,"rentaImponible":725000,"tasaCesantiaEmp":0.024,"tasaCesantiaTrab":0.006,"rentaImponibleAfp":725000,"rentaImponibleCesantia":725000},"createdAt":"2026-03-17T23:58:32.069Z","updatedAt":"2026-03-17T23:58:32.069Z","trabajador":{"id":"cmmv9wmka000c4dss9izv33ne","nombre":"Francisca","apellidoPaterno":"Herrera","apellidoMaterno":"Díaz","rut":"241234561"}},{"id":"cmmv9wms2002s4dssx502x9md","empresaId":"cmmv9wmiu00004dssyjn0bxk2","trabajadorId":"cmmv9wmji00044dssjty8rbpr","periodo":"2026-02","sueldoBase":"1200000","gratificacion":"213354","horasExtra":"0","bonos":"0","otrosHaberes":"0","totalHaberes":"1413354","afp":"141335","comisionAfp":"17950","salud":"98935","cesantiaTrab":"8480","impuestoRenta":"9128","otrosDescuentos":"0","totalDescuentos":"275828","liquido":"1137526","sis":"21766","cesantiaEmp":"33921","mutual":"13427","aporteReforma":"14134","totalCostoEmp":"83248","verificado":true,"aprobadoPor":null,"estado":"APROBADA","detalleCalculo":{"tasaAfp":0.1,"tasaSis":0.0154,"topeAfp":3483000,"tasaSalud":0.07,"tasaMutual":0.0095,"tasaReforma":0.01,"tasaComision":0.0127,"topeCesantia":5232240,"baseImponible":1413354.166666667,"rentaImponible":1413354.166666667,"tasaCesantiaEmp":0.024,"tasaCesantiaTrab":0.006,"rentaImponibleAfp":1413354.166666667,"rentaImponibleCesantia":1413354.166666667},"createdAt":"2026-03-17T23:58:32.018Z","updatedAt":"2026-03-17T23:58:32.018Z","trabajador":{"id":"cmmv9wmji00044dssjty8rbpr","nombre":"Ana","apellidoPaterno":"Martínez","apellidoMaterno":"López","rut":"201234567"}},{"id":"cmmv9wmt400344dsshh57o2ty","empresaId":"cmmv9wmiu00004dssyjn0bxk2","trabajadorId":"cmmv9wmk4000a4dsscd231kex","periodo":"2026-02","sueldoBase":"600000","gratificacion":"150000","horasExtra":"9448","bonos":"0","otrosHaberes":"0","totalHaberes":"759448","afp":"75945","comisionAfp":"11012","salud":"53161","cesantiaTrab":"4557","impuestoRenta":"0","otrosDescuentos":"0","totalDescuentos":"144675","liquido":"614773","sis":"11695","cesantiaEmp":"18227","mutual":"7215","aporteReforma":"7594","totalCostoEmp":"44731","verificado":true,"aprobadoPor":null,"estado":"APROBADA","detalleCalculo":{"tasaAfp":0.1,"tasaSis":0.0154,"topeAfp":3483000,"tasaSalud":0.07,"tasaMutual":0.0095,"tasaReforma":0.01,"tasaComision":0.0145,"topeCesantia":5232240,"baseImponible":759448,"rentaImponible":759448,"tasaCesantiaEmp":0.024,"tasaCesantiaTrab":0.006,"rentaImponibleAfp":759448,"rentaImponibleCesantia":759448},"createdAt":"2026-03-17T23:58:32.056Z","updatedAt":"2026-03-17T23:58:32.056Z","trabajador":{"id":"cmmv9wmk4000a4dsscd231kex","nombre":"Miguel","apellidoPaterno":"Sánchez","apellidoMaterno":"Araya","rut":"231234560"}},{"id":"cmmv9wmss00304dsso7cyv8l4","empresaId":"cmmv9wmiu00004dssyjn0bxk2","trabajadorId":"cmmv9wmjz00084dssjcz93bc1","periodo":"2026-02","sueldoBase":"650000","gratificacion":"162500","horasExtra":"20470","bonos":"0","otrosHaberes":"0","totalHaberes":"832970","afp":"83297","comisionAfp":"10412","salud":"58308","cesantiaTrab":"4998","impuestoRenta":"0","otrosDescuentos":"0","totalDescuentos":"157015","liquido":"675955","sis":"12828","cesantiaEmp":"19991","mutual":"7913","aporteReforma":"8330","totalCostoEmp":"49062","verificado":true,"aprobadoPor":null,"estado":"APROBADA","detalleCalculo":{"tasaAfp":0.1,"tasaSis":0.0154,"topeAfp":3483000,"tasaSalud":0.07,"tasaMutual":0.0095,"tasaReforma":0.01,"tasaComision":0.0125,"topeCesantia":5232240,"baseImponible":832970,"rentaImponible":832970,"tasaCesantiaEmp":0.024,"tasaCesantiaTrab":0.006,"rentaImponibleAfp":832970,"rentaImponibleCesantia":832970},"createdAt":"2026-03-17T23:58:32.044Z","updatedAt":"2026-03-17T23:58:32.044Z","trabajador":{"id":"cmmv9wmjz00084dssjcz93bc1","nombre":"Claudia","apellidoPaterno":"Torres","apellidoMaterno":"Fuentes","rut":"221234569"}},{"id":"cmmv9wmse002w4dssu0d84lu5","empresaId":"cmmv9wmiu00004dssyjn0bxk2","trabajadorId":"cmmv9wmjs00064dssqrdvhpb4","periodo":"2026-02","sueldoBase":"850000","gratificacion":"212500","horasExtra":"13384","bonos":"0","otrosHaberes":"0","totalHaberes":"1075884","afp":"107588","comisionAfp":"6240","salud":"75312","cesantiaTrab":"6455","impuestoRenta":"0","otrosDescuentos":"0","totalDescuentos":"195595","liquido":"880289","sis":"16569","cesantiaEmp":"25821","mutual":"10221","aporteReforma":"10759","totalCostoEmp":"63370","verificado":true,"aprobadoPor":null,"estado":"APROBADA","detalleCalculo":{"tasaAfp":0.1,"tasaSis":0.0154,"topeAfp":3483000,"tasaSalud":0.07,"tasaMutual":0.0095,"tasaReforma":0.01,"tasaComision":0.0058,"topeCesantia":5232240,"baseImponible":1075884,"rentaImponible":1075884,"tasaCesantiaEmp":0.024,"tasaCesantiaTrab":0.006,"rentaImponibleAfp":1075884,"rentaImponibleCesantia":1075884},"createdAt":"2026-03-17T23:58:32.030Z","updatedAt":"2026-03-17T23:58:32.030Z","trabajador":{"id":"cmmv9wmjs00064dssqrdvhpb4","nombre":"Pedro","apellidoPaterno":"Rojas","apellidoMaterno":"Vargas","rut":"211234568"}},{"id":"cmmv9wmqr002c4dsselidyl42","empresaId":"cmmv9wmiu00004dssyjn0bxk2","trabajadorId":"cmmv9wmka000c4dss9izv33ne","periodo":"2026-01","sueldoBase":"580000","gratificacion":"145000","horasExtra":"4566","bonos":"0","otrosHaberes":"0","totalHaberes":"729566","afp":"72957","comisionAfp":"9265","salud":"51070","cesantiaTrab":"4377","impuestoRenta":"0","otrosDescuentos":"0","totalDescuentos":"137669","liquido":"591897","sis":"11235","cesantiaEmp":"17510","mutual":"6931","aporteReforma":"7296","totalCostoEmp":"42972","verificado":true,"aprobadoPor":null,"estado":"APROBADA","detalleCalculo":{"tasaAfp":0.1,"tasaSis":0.0154,"topeAfp":3483000,"tasaSalud":0.07,"tasaMutual":0.0095,"tasaReforma":0.01,"tasaComision":0.0127,"topeCesantia":5232240,"baseImponible":729566,"rentaImponible":729566,"tasaCesantiaEmp":0.024,"tasaCesantiaTrab":0.006,"rentaImponibleAfp":729566,"rentaImponibleCesantia":729566},"createdAt":"2026-03-17T23:58:31.972Z","updatedAt":"2026-03-17T23:58:31.972Z","trabajador":{"id":"cmmv9wmka000c4dss9izv33ne","nombre":"Francisca","apellidoPaterno":"Herrera","apellidoMaterno":"Díaz","rut":"241234561"}},{"id":"cmmv9wmph001w4dssul0ikmax","empresaId":"cmmv9wmiu00004dssyjn0bxk2","trabajadorId":"cmmv9wmji00044dssjty8rbpr","periodo":"2026-01","sueldoBase":"1200000","gratificacion":"213354","horasExtra":"0","bonos":"0","otrosHaberes":"0","totalHaberes":"1413354","afp":"141335","comisionAfp":"17950","salud":"98935","cesantiaTrab":"8480","impuestoRenta":"9128","otrosDescuentos":"0","totalDescuentos":"275828","liquido":"1137526","sis":"21766","cesantiaEmp":"33921","mutual":"13427","aporteReforma":"14134","totalCostoEmp":"83248","verificado":true,"aprobadoPor":null,"estado":"APROBADA","detalleCalculo":{"tasaAfp":0.1,"tasaSis":0.0154,"topeAfp":3483000,"tasaSalud":0.07,"tasaMutual":0.0095,"tasaReforma":0.01,"tasaComision":0.0127,"topeCesantia":5232240,"baseImponible":1413354.166666667,"rentaImponible":1413354.166666667,"tasaCesantiaEmp":0.024,"tasaCesantiaTrab":0.006,"rentaImponibleAfp":1413354.166666667,"rentaImponibleCesantia":1413354.166666667},"createdAt":"2026-03-17T23:58:31.925Z","updatedAt":"2026-03-17T23:58:31.925Z","trabajador":{"id":"cmmv9wmji00044dssjty8rbpr","nombre":"Ana","apellidoPaterno":"Martínez","apellidoMaterno":"López","rut":"201234567"}},{"id":"cmmv9wmpt00204dssrsthgy55","empresaId":"cmmv9wmiu00004dssyjn0bxk2","trabajadorId":"cmmv9wmjs00064dssqrdvhpb4","periodo":"2026-01","sueldoBase":"850000","gratificacion":"212500","horasExtra":"20077","bonos":"0","otrosHaberes":"0","totalHaberes":"1082577","afp":"108258","comisionAfp":"6279","salud":"75780","cesantiaTrab":"6495","impuestoRenta":"0","otrosDescuentos":"0","totalDescuentos":"196812","liquido":"885765","sis":"16672","cesantiaEmp":"25982","mutual":"10284","aporteReforma":"10826","totalCostoEmp":"63764","verificado":true,"aprobadoPor":null,"estado":"APROBADA","detalleCalculo":{"tasaAfp":0.1,"tasaSis":0.0154,"topeAfp":3483000,"tasaSalud":0.07,"tasaMutual":0.0095,"tasaReforma":0.01,"tasaComision":0.0058,"topeCesantia":5232240,"baseImponible":1082577,"rentaImponible":1082577,"tasaCesantiaEmp":0.024,"tasaCesantiaTrab":0.006,"rentaImponibleAfp":1082577,"rentaImponibleCesantia":1082577},"createdAt":"2026-03-17T23:58:31.937Z","updatedAt":"2026-03-17T23:58:31.937Z","trabajador":{"id":"cmmv9wmjs00064dssqrdvhpb4","nombre":"Pedro","apellidoPaterno":"Rojas","apellidoMaterno":"Vargas","rut":"211234568"}},{"id":"cmmv9wmq500244dssqtbhl2cv","empresaId":"cmmv9wmiu00004dssyjn0bxk2","trabajadorId":"cmmv9wmjz00084dssjcz93bc1","periodo":"2026-01","sueldoBase":"650000","gratificacion":"162500","horasExtra":"5118","bonos":"0","otrosHaberes":"0","totalHaberes":"817618","afp":"81762","comisionAfp":"10220","salud":"57233","cesantiaTrab":"4906","impuestoRenta":"0","otrosDescuentos":"0","totalDescuentos":"154121","liquido":"663497","sis":"12591","cesantiaEmp":"19623","mutual":"7767","aporteReforma":"8176","totalCostoEmp":"48157","verificado":true,"aprobadoPor":null,"estado":"APROBADA","detalleCalculo":{"tasaAfp":0.1,"tasaSis":0.0154,"topeAfp":3483000,"tasaSalud":0.07,"tasaMutual":0.0095,"tasaReforma":0.01,"tasaComision":0.0125,"topeCesantia":5232240,"baseImponible":817618,"rentaImponible":817618,"tasaCesantiaEmp":0.024,"tasaCesantiaTrab":0.006,"rentaImponibleAfp":817618,"rentaImponibleCesantia":817618},"createdAt":"2026-03-17T23:58:31.949Z","updatedAt":"2026-03-17T23:58:31.949Z","trabajador":{"id":"cmmv9wmjz00084dssjcz93bc1","nombre":"Claudia","apellidoPaterno":"Torres","apellidoMaterno":"Fuentes","rut":"221234569"}},{"id":"cmmv9wmqg00284dssboftiyzy","empresaId":"cmmv9wmiu00004dssyjn0bxk2","trabajadorId":"cmmv9wmk4000a4dsscd231kex","periodo":"2026-01","sueldoBase":"600000","gratificacion":"150000","horasExtra":"4724","bonos":"0","otrosHaberes":"0","totalHaberes":"754724","afp":"75472","comisionAfp":"10943","salud":"52831","cesantiaTrab":"4528","impuestoRenta":"0","otrosDescuentos":"0","totalDescuentos":"143774","liquido":"610950","sis":"11623","cesantiaEmp":"18113","mutual":"7170","aporteReforma":"7547","totalCostoEmp":"44453","verificado":true,"aprobadoPor":null,"estado":"APROBADA","detalleCalculo":{"tasaAfp":0.1,"tasaSis":0.0154,"topeAfp":3483000,"tasaSalud":0.07,"tasaMutual":0.0095,"tasaReforma":0.01,"tasaComision":0.0145,"topeCesantia":5232240,"baseImponible":754724,"rentaImponible":754724,"tasaCesantiaEmp":0.024,"tasaCesantiaTrab":0.006,"rentaImponibleAfp":754724,"rentaImponibleCesantia":754724},"createdAt":"2026-03-17T23:58:31.960Z","updatedAt":"2026-03-17T23:58:31.960Z","trabajador":{"id":"cmmv9wmk4000a4dsscd231kex","nombre":"Miguel","apellidoPaterno":"Sánchez","apellidoMaterno":"Araya","rut":"231234560"}},{"id":"cmmv9wmr3002g4dsswbqvgumm","empresaId":"cmmv9wmiu00004dssyjn0bxk2","trabajadorId":"cmmv9wmkg000e4dssreqzpoxg","periodo":"2026-01","sueldoBase":"900000","gratificacion":"213354","horasExtra":"28343","bonos":"0","otrosHaberes":"0","totalHaberes":"1141697","afp":"114170","comisionAfp":"7878","salud":"79919","cesantiaTrab":"6850","impuestoRenta":"577","otrosDescuentos":"0","totalDescuentos":"209394","liquido":"932303","sis":"17582","cesantiaEmp":"27401","mutual":"10846","aporteReforma":"11417","totalCostoEmp":"67246","verificado":true,"aprobadoPor":null,"estado":"APROBADA","detalleCalculo":{"tasaAfp":0.1,"tasaSis":0.0154,"topeAfp":3483000,"tasaSalud":0.07,"tasaMutual":0.0095,"tasaReforma":0.01,"tasaComision":0.0069,"topeCesantia":5232240,"baseImponible":1141697.166666667,"rentaImponible":1141697.166666667,"tasaCesantiaEmp":0.024,"tasaCesantiaTrab":0.006,"rentaImponibleAfp":1141697.166666667,"rentaImponibleCesantia":1141697.166666667},"createdAt":"2026-03-17T23:58:31.984Z","updatedAt":"2026-03-17T23:58:31.984Z","trabajador":{"id":"cmmv9wmkg000e4dssreqzpoxg","nombre":"Jorge","apellidoPaterno":"Espinoza","apellidoMaterno":"Castillo","rut":"251234562"}},{"id":"cmmv9wmrf002k4dssdipxymoi","empresaId":"cmmv9wmiu00004dssyjn0bxk2","trabajadorId":"cmmv9wmkl000g4dssu3faxebr","periodo":"2026-01","sueldoBase":"350000","gratificacion":"87500","horasExtra":"16166","bonos":"0","otrosHaberes":"0","totalHaberes":"453666","afp":"45367","comisionAfp":"5263","salud":"31757","cesantiaTrab":"2722","impuestoRenta":"0","otrosDescuentos":"0","totalDescuentos":"85109","liquido":"368557","sis":"6986","cesantiaEmp":"10888","mutual":"4310","aporteReforma":"4537","totalCostoEmp":"26721","verificado":true,"aprobadoPor":null,"estado":"APROBADA","detalleCalculo":{"tasaAfp":0.1,"tasaSis":0.0154,"topeAfp":3483000,"tasaSalud":0.07,"tasaMutual":0.0095,"tasaReforma":0.01,"tasaComision":0.0116,"topeCesantia":5232240,"baseImponible":453666,"rentaImponible":453666,"tasaCesantiaEmp":0.024,"tasaCesantiaTrab":0.006,"rentaImponibleAfp":453666,"rentaImponibleCesantia":453666},"createdAt":"2026-03-17T23:58:31.995Z","updatedAt":"2026-03-17T23:58:31.995Z","trabajador":{"id":"cmmv9wmkl000g4dssu3faxebr","nombre":"Valentina","apellidoPaterno":"Morales","apellidoMaterno":"Parra","rut":"261234563"}},{"id":"cmmv9wmrq002o4dssh9eu9xyc","empresaId":"cmmv9wmiu00004dssyjn0bxk2","trabajadorId":"cmmv9wmkr000i4dsswytsf6mw","periodo":"2026-01","sueldoBase":"550000","gratificacion":"137500","horasExtra":"17321","bonos":"0","otrosHaberes":"0","totalHaberes":"704821","afp":"70482","comisionAfp":"3242","salud":"49337","cesantiaTrab":"4229","impuestoRenta":"0","otrosDescuentos":"0","totalDescuentos":"127290","liquido":"577531","sis":"10854","cesantiaEmp":"16916","mutual":"6696","aporteReforma":"7048","totalCostoEmp":"41514","verificado":true,"aprobadoPor":null,"estado":"APROBADA","detalleCalculo":{"tasaAfp":0.1,"tasaSis":0.0154,"topeAfp":3483000,"tasaSalud":0.07,"tasaMutual":0.0095,"tasaReforma":0.01,"tasaComision":0.0046,"topeCesantia":5232240,"baseImponible":704821,"rentaImponible":704821,"tasaCesantiaEmp":0.024,"tasaCesantiaTrab":0.006,"rentaImponibleAfp":704821,"rentaImponibleCesantia":704821},"createdAt":"2026-03-17T23:58:32.007Z","updatedAt":"2026-03-17T23:58:32.007Z","trabajador":{"id":"cmmv9wmkr000i4dsswytsf6mw","nombre":"Ricardo","apellidoPaterno":"Guzmán","apellidoMaterno":"Vega","rut":"271234564"}},{"id":"cmmv9wmme00104dssa0yszqlf","empresaId":"cmmv9wmiu00004dssyjn0bxk2","trabajadorId":"cmmv9wmji00044dssjty8rbpr","periodo":"2025-12","sueldoBase":"1200000","gratificacion":"213354","horasExtra":"9448","bonos":"0","otrosHaberes":"0","totalHaberes":"1422802","afp":"142280","comisionAfp":"18070","salud":"99596","cesantiaTrab":"8537","impuestoRenta":"9434","otrosDescuentos":"0","totalDescuentos":"277917","liquido":"1144885","sis":"21911","cesantiaEmp":"34147","mutual":"13517","aporteReforma":"14228","totalCostoEmp":"83803","verificado":true,"aprobadoPor":null,"estado":"APROBADA","detalleCalculo":{"tasaAfp":0.1,"tasaSis":0.0154,"topeAfp":3483000,"tasaSalud":0.07,"tasaMutual":0.0095,"tasaReforma":0.01,"tasaComision":0.0127,"topeCesantia":5232240,"baseImponible":1422802.166666667,"rentaImponible":1422802.166666667,"tasaCesantiaEmp":0.024,"tasaCesantiaTrab":0.006,"rentaImponibleAfp":1422802.166666667,"rentaImponibleCesantia":1422802.166666667},"createdAt":"2026-03-17T23:58:31.815Z","updatedAt":"2026-03-17T23:58:31.815Z","trabajador":{"id":"cmmv9wmji00044dssjty8rbpr","nombre":"Ana","apellidoPaterno":"Martínez","apellidoMaterno":"López","rut":"201234567"}},{"id":"cmmv9wmp4001s4dsshv6iwfm4","empresaId":"cmmv9wmiu00004dssyjn0bxk2","trabajadorId":"cmmv9wmkr000i4dsswytsf6mw","periodo":"2025-12","sueldoBase":"550000","gratificacion":"137500","horasExtra":"17321","bonos":"0","otrosHaberes":"0","totalHaberes":"704821","afp":"70482","comisionAfp":"3242","salud":"49337","cesantiaTrab":"4229","impuestoRenta":"0","otrosDescuentos":"0","totalDescuentos":"127290","liquido":"577531","sis":"10854","cesantiaEmp":"16916","mutual":"6696","aporteReforma":"7048","totalCostoEmp":"41514","verificado":true,"aprobadoPor":null,"estado":"APROBADA","detalleCalculo":{"tasaAfp":0.1,"tasaSis":0.0154,"topeAfp":3483000,"tasaSalud":0.07,"tasaMutual":0.0095,"tasaReforma":0.01,"tasaComision":0.0046,"topeCesantia":5232240,"baseImponible":704821,"rentaImponible":704821,"tasaCesantiaEmp":0.024,"tasaCesantiaTrab":0.006,"rentaImponibleAfp":704821,"rentaImponibleCesantia":704821},"createdAt":"2026-03-17T23:58:31.913Z","updatedAt":"2026-03-17T23:58:31.913Z","trabajador":{"id":"cmmv9wmkr000i4dsswytsf6mw","nombre":"Ricardo","apellidoPaterno":"Guzmán","apellidoMaterno":"Vega","rut":"271234564"}},{"id":"cmmv9wmos001o4dssde001grn","empresaId":"cmmv9wmiu00004dssyjn0bxk2","trabajadorId":"cmmv9wmkl000g4dssu3faxebr","periodo":"2025-12","sueldoBase":"350000","gratificacion":"87500","horasExtra":"16166","bonos":"0","otrosHaberes":"0","totalHaberes":"453666","afp":"45367","comisionAfp":"5263","salud":"31757","cesantiaTrab":"2722","impuestoRenta":"0","otrosDescuentos":"0","totalDescuentos":"85109","liquido":"368557","sis":"6986","cesantiaEmp":"10888","mutual":"4310","aporteReforma":"4537","totalCostoEmp":"26721","verificado":true,"aprobadoPor":null,"estado":"APROBADA","detalleCalculo":{"tasaAfp":0.1,"tasaSis":0.0154,"topeAfp":3483000,"tasaSalud":0.07,"tasaMutual":0.0095,"tasaReforma":0.01,"tasaComision":0.0116,"topeCesantia":5232240,"baseImponible":453666,"rentaImponible":453666,"tasaCesantiaEmp":0.024,"tasaCesantiaTrab":0.006,"rentaImponibleAfp":453666,"rentaImponibleCesantia":453666},"createdAt":"2026-03-17T23:58:31.900Z","updatedAt":"2026-03-17T23:58:31.900Z","trabajador":{"id":"cmmv9wmkl000g4dssu3faxebr","nombre":"Valentina","apellidoPaterno":"Morales","apellidoMaterno":"Parra","rut":"261234563"}},{"id":"cmmv9wmof001k4dssudz84ze3","empresaId":"cmmv9wmiu00004dssyjn0bxk2","trabajadorId":"cmmv9wmkg000e4dssreqzpoxg","periodo":"2025-12","sueldoBase":"900000","gratificacion":"213354","horasExtra":"0","bonos":"0","otrosHaberes":"0","totalHaberes":"1113354","afp":"111335","comisionAfp":"7682","salud":"77935","cesantiaTrab":"6680","impuestoRenta":"0","otrosDescuentos":"0","totalDescuentos":"203632","liquido":"909722","sis":"17146","cesantiaEmp":"26721","mutual":"10577","aporteReforma":"11134","totalCostoEmp":"65578","verificado":true,"aprobadoPor":null,"estado":"APROBADA","detalleCalculo":{"tasaAfp":0.1,"tasaSis":0.0154,"topeAfp":3483000,"tasaSalud":0.07,"tasaMutual":0.0095,"tasaReforma":0.01,"tasaComision":0.0069,"topeCesantia":5232240,"baseImponible":1113354.166666667,"rentaImponible":1113354.166666667,"tasaCesantiaEmp":0.024,"tasaCesantiaTrab":0.006,"rentaImponibleAfp":1113354.166666667,"rentaImponibleCesantia":1113354.166666667},"createdAt":"2026-03-17T23:58:31.888Z","updatedAt":"2026-03-17T23:58:31.888Z","trabajador":{"id":"cmmv9wmkg000e4dssreqzpoxg","nombre":"Jorge","apellidoPaterno":"Espinoza","apellidoMaterno":"Castillo","rut":"251234562"}}],"pagination":{"total":24,"page":1,"limit":20,"pages":2}}}